Simplified Lot Quality Assurance Sampling Evaluation of Access and Coverage (SLEAC) Tools • sleacr
…
In this updated sampling plan, the decision rule is now more than 10 SAM cases but with higher alpha and beta errors. Note that the beta error is now slightly higher than 10%.

Stage 1 sample

The first stage sample of a SLEAC survey is a systematic spatial sample. Two methods can be used and both methods take the sample from all parts of the survey area: the list-based method and the map-based method. The sleacr package currently supports the implementation of the list-based method.

In the list-based method, communities to be sampled are selected systematically from a complete list of communities in the survey area. This list of communities should sorted by one or more non-overlapping spatial factors such as district and subdistricts within districts. The village_list dataset is an example of such a list.

village_list
#> # A tibble: 1,001 × 4
#>       id chiefdom section village  
#>    <dbl> <chr>    <chr>   <chr>    
#>  1     1 Badjia   Damia   Ngelehun 
#>  2     2 Badjia   Damia   Gondama  
#>  3     3 Badjia   Damia   Penjama  
#>  4     4 Badjia   Damia   Jawe     
#>  5     5 Badjia   Damia   Dambala  
#>  6     6 Badjia   Fallay  Bumpewo  
#>  7     7 Badjia   Fallay  Pelewahun
#>  8     8 Badjia   Fallay  Pendembu 
#>  9     9 Badjia   Kpallay Jokibu   
#> 10    10 Badjia   Kpallay Kpaku    
#> # ℹ 991 more rows
…
