…
## Source

Ministry of Health, Sierra Leone

## Examples

``` r
village_list
#> # A tibble: 1,001 × 4
#>       id chiefdom section village  
#>    <dbl> <chr>    <chr>   <chr>    
#>  1     1 Badjia   Damia   Ngelehun 
#>  2     2 Badjia   Damia   Gondama  
#>  3     3 Badjia   Damia   Penjama  
#>  4     4 Badjia   Damia   Jawe     
#>  5     5 Badjia   Damia   Dambala  
#>  6     6 Badjia   Fallay  Bumpewo  
#>  7     7 Badjia   Fallay  Pelewahun
#>  8     8 Badjia   Fallay  Pendembu 
#>  9     9 Badjia   Kpallay Jokibu   
#> 10    10 Badjia   Kpallay Kpaku    
#> # ℹ 991 more rows
```
